182.38 182.81
183.37 184.68
185.06 186.68
187.19 187.54
187.77 188.42
189.13 191.22
192.11 194.11
194.34 194.62
194.96 195.37
195.64 196.52
197.03 200.60
200.82 202.24
202.84 203.44
203.55 203.87
204.44 204.84
211.47 212.04
228.42 229.84
229.91 230.32
230.65 235.34
235.94 236.74
294.70 294.82
297.83 298.26
304.01 304.30
308.64 311.85
320.64 321.07
322.23 322.48
357.19 357.50
365.04 365.29
371.01 371.26
373.00 373.50
373.66 373.79
374.55 374.83
375.07 375.41
376.10 379.21
379.72 380.32
380.43 383.08
383.46 384.91
385.16 387.75
388.57 389.71
389.93 391.67
391.80 392.81
393.45 394.45
405.81 409.50
409.80 411.58
411.74 412.02
412.21 415.61
416.18 418.98
440.74 441.20
444.38 444.67
449.02 449.40
504.32 505.74
506.52 507.65
518.63 519.08
527.31 527.66
535.15 535.95
551.92 552.27
556.57 557.61
558.44 559.61
568.28 568.66
571.85 573.44
573.72 574.46
574.80 578.08
629.73 630.39
684.51 685.15
695.23 695.60
719.41 719.85
728.32 728.63
729.16 729.60
739.53 739.82
760.43 760.71
792.18 792.64
794.88 796.82
841.45 842.65
851.21 852.17
859.19 861.42
867.34 867.97
876.63 876.99
897.02 897.52
902.17 902.48
907.97 908.26
912.35 912.74
943.63 946.04
978.27 978.79
981.97 982.35
983.54 984.02
984.90 990.27
990.41 991.67
992.25 996.43
996.61 997.43
1001.99 1002.40
1007.14 1007.88
1077.98 1081.12
1081.76 1082.64
1084.22 1084.50
1088.58 1089.30
1089.91 1090.29
1098.76 1099.35
1101.34 1101.78
1115.80 1116.20
1116.48 1118.69
1120.36 1120.71
1124.78 1127.64
1131.44 1132.00
1135.52 1135.90
1138.64 1139.55
1140.61 1141.03
1141.50 1143.06
1143.70 1145.84
1146.15 1146.76
1146.96 1149.97
1150.21 1151.20
1151.79 1152.71
1153.06 1154.89
1158.64 1158.98
1164.05 1164.56
1170.85 1171.25
1171.70 1172.42
1183.73 1189.04
1197.57 1199.06
1207.02 1207.51
1247.73 1248.78
1249.55 1250.35
1250.86 1252.11
1254.03 1254.48
