3.21 3.44
3.58 4.58
6.05 9.42
9.79 11.17
11.29 11.55
12.19 12.84
13.14 15.91
16.52 17.16
17.25 19.47
20.25 24.82
25.09 26.13
27.92 30.41
59.90 61.16
61.76 70.11
85.98 88.96
103.10 105.81
140.30 144.00
152.92 154.11
154.26 154.73
156.79 159.21
159.44 159.94
198.10 200.48
201.84 202.41
203.04 203.38
203.51 206.05
206.35 206.65
207.21 208.76
208.95 209.19
254.06 254.31
257.28 260.45
261.02 263.53
301.41 305.32
305.82 306.76
331.74 336.06
336.68 341.67
343.24 343.72
402.07 403.59
404.00 405.00
405.33 408.51
408.96 409.90
410.46 411.31
448.16 449.86
456.95 457.41
463.31 463.53
474.85 475.52
516.23 516.71
549.03 551.02
551.74 552.06
552.22 552.93
553.05 553.37
555.67 556.42
569.22 570.92
611.61 612.13
612.39 616.49
616.99 617.60
643.87 644.49
653.71 654.18
663.36 663.70
673.48 674.00
674.45 675.91
676.85 677.33
681.85 682.37
